"filename";"F-Args Name";"F-Mccc Name";"F-Mccc-1/F-RLoc Name";"F-Nl Name";"F-RLoc Name";"FunctionsUncommented";"Hacks";"Loc";"Mccc";"Nl4+";"Nl6+";"Nl8+";"RLoc";"Todos";"Uncommented Complexity"
"dalvik/libdex/DexOptData.h";"";"";"";"";"";"0";"0";"42";"1.5";"0";"0";"0";"2";"0";"0"
"dalvik/libdex/InstrUtils.cpp";"fetch_u4_impl, line 480";"dexDecodeInstruction, line 490";"dexGetWidthFromInstruction, line 660";"dexDecodeInstruction, line 490";"dexDecodeInstruction, line 490";"0";"0";"678";"31";"4";"0";"0";"539";"1";"0"
"dalvik/libdex/InstrUtils.h";"dexGetWidthFromOpcode, line 142";"";"";"";"dexGetWidthFromOpcode, line 142";"0";"0";"195";"1";"0";"0";"0";"82";"0";"0"
"dalvik/libdex/DexDebugInfo.cpp";"dexDecodeDebugInfo0, line 141";"dexDecodeDebugInfo0, line 141";"emitLocalCbIfLive, line 120";"dexDecodeDebugInfo0, line 141";"dexDecodeDebugInfo0, line 141";"1";"0";"334";"39";"4";"0";"0";"187";"1";"5"
"dalvik/libdex/CmdUtils.cpp";"dexOpenAndMap, line 110";"dexOpenAndMap, line 110";"dexOpenAndMap, line 110";"dexOpenAndMap, line 110";"dexOpenAndMap, line 110";"1";"0";"228";"28";"0";"0";"0";"97";"0";"0"
"dalvik/libdex/DexDataMap.h";"dexDataMapVerify0Ok, line 65";"dexDataMapVerify0Ok, line 65";"dexDataMapVerify0Ok, line 65";"dexDataMapVerify0Ok, line 65";"dexDataMapVerify0Ok, line 65";"0";"0";"73";"2";"0";"0";"0";"14";"0";"0"
"dalvik/libdex/DexOptData.cpp";"isValidPointer, line 31";"dexParseOptData, line 49";"isValidPointer, line 31";"dexParseOptData, line 49";"dexParseOptData, line 49";"1";"0";"128";"11";"0";"0";"0";"52";"0";"0"
"dalvik/libdex/DexClass.cpp";"dexReadAndVerifyClassDataField, line 63";"dexReadAndVerifyClassData, line 104";"verifyUlebs, line 28";"verifyUlebs, line 28";"dexReadAndVerifyClassData, line 104";"0";"0";"192";"22";"0";"0";"0";"84";"0";"6"
"dalvik/libdex/Leb128.cpp";"readAndVerifyUnsignedLeb128, line 32";"readAndVerifyUnsignedLeb128, line 32";"readAndVerifyUnsignedLeb128, line 32";"readAndVerifyUnsignedLeb128, line 32";"readAndVerifyUnsignedLeb128, line 32";"0";"0";"65";"9";"0";"0";"0";"16";"0";"0"
"dalvik/libdex/DexProto.cpp";"protoCompare, line 254";"protoCompare, line 254";"protoCompareToParameterDescriptors, line 380";"dexProtoComputeArgsSize, line 226";"protoCompare, line 254";"1";"0";"523";"50";"0";"0";"0";"232";"0";"0"
"dalvik/libdex/DexInlines.cpp";"";"";"";"";"";"0";"0";"33";"1";"0";"0";"0";"0";"0";"0"
"dalvik/libdex/OptInvocation.h";"";"";"";"";"";"0";"0";"30";"1";"0";"0";"0";"3";"0";"0"
"dalvik/libdex/DexSwapVerify.cpp";"checkBoundsAndIterateSection, line 2469";"intraVerifyDebugInfoItem, line 1973";"mapTypeToBitMask, line 344";"iterateSectionWithOptionalUpdate, line 2399";"swapEverythingButHeaderAndMap, line 2525";"16";"0";"2971";"403";"49";"0";"0";"1701";"0";"63"
"dalvik/libdex/DexProto.h";"dexProtoSetFromMethodId, line 87";"";"";"";"dexGetDescriptorFromMethodId, line 123";"0";"0";"229";"1";"0";"0";"0";"51";"0";"0"
"dalvik/libdex/DexDataMap.cpp";"dexDataMapAdd, line 74";"dexDataMapAlloc, line 28";"dexDataMapAlloc, line 28";"dexDataMapGet, line 94";"dexDataMapGet, line 94";"0";"0";"141";"11";"0";"0";"0";"53";"0";"0"
"dalvik/libdex/DexClass.h";"dexReadClassDataField, line 136";"dexGetCode, line 109";"dexGetCode, line 109";"";"dexReadClassDataMethod, line 152";"0";"0";"162";"2";"0";"0";"0";"49";"0";"0"
"dalvik/libdex/DexFile.h";"dexGetAnnotationItem, line 953";"dexGetMap, line 603";"dexGetStringData, line 614";"dexGetMap, line 603";"dexGetParameterAnnotations, line 884";"0";"0";"990";"20";"0";"0";"0";"445";"0";"0"
"dalvik/libdex/SysUtil.cpp";"sysMapFileSegmentInShmem, line 193";"sysChangeMapAccess, line 239";"sysChangeMapAccess, line 239";"sysWriteFully, line 316";"sysMapFileSegmentInShmem, line 193";"1";"0";"358";"28";"0";"0";"0";"160";"0";"0"
"dalvik/libdex/OptInvocation.cpp";"dexOptMkdir, line 52";"dexOptGenerateCacheFileName, line 70";"dexOptGenerateCacheFileName, line 70";"dexOptGenerateCacheFileName, line 70";"dexOptGenerateCacheFileName, line 70";"0";"0";"181";"15";"0";"0";"0";"62";"0";"0"
"dalvik/libdex/DexFile.cpp";"classLookupAdd, line 177";"dexFileParse, line 289";"dexGetBoxedTypeDescriptor, line 72";"dexFileParse, line 289";"dexFileParse, line 289";"3";"0";"542";"63";"0";"0";"0";"266";"0";"0"
"dalvik/libdex/DexUtf.cpp";"isValidTypeDescriptorOrClassName, line 151";"isValidTypeDescriptorOrClassName, line 151";"dexIsReferenceDescriptor, line 275";"dexIsValidMemberNameUtf8_0, line 58";"isValidTypeDescriptorOrClassName, line 151";"3";"0";"304";"41";"4";"0";"0";"127";"0";"0"
"dalvik/libdex/DexUtf.h";"dexGetUtf16FromUtf8, line 40";"dexGetUtf16FromUtf8, line 40";"dexGetUtf16FromUtf8, line 40";"dexGetUtf16FromUtf8, line 40";"dexGetUtf16FromUtf8, line 40";"0";"0";"131";"4";"0";"0";"0";"32";"0";"0"
"dalvik/libdex/DexOpcodes.cpp";"dexGetOpcodeName, line 295";"dexGetOpcodeName, line 295";"dexGetOpcodeName, line 295";"";"dexGetOpcodeName, line 295";"0";"0";"299";"2";"0";"0";"0";"4";"0";"0"
"dalvik/libdex/ZipArchive.h";"dexZipOpenArchiveFd, line 45";"";"";"";"dexZipOpenArchive, line 34";"0";"0";"86";"1";"0";"0";"0";"15";"0";"0"
"dalvik/libdex/sha1.cpp";"SHA1Update, line 215";"main, line 418";"SHA1Final, line 241";"verifyfile, line 329";"main, line 418";"2";"0";"514";"34";"19";"0";"0";"224";"0";"13"
"dalvik/libdex/SysUtil.h";"";"";"";"";"";"0";"0";"109";"1";"0";"0";"0";"15";"0";"0"
"dalvik/libdex/sha1.h";"";"";"";"";"";"0";"0";"20";"1";"0";"0";"0";"8";"0";"0"
"dalvik/libdex/DexDebugInfo.h";"";"";"";"";"";"0";"0";"55";"1";"0";"0";"0";"12";"0";"0"
"dalvik/libdex/Leb128.h";"writeUnsignedLeb128, line 133";"readSignedLeb128, line 66";"readUnsignedLeb128, line 31";"readUnsignedLeb128, line 31";"readSignedLeb128, line 66";"0";"0";"164";"12";"5";"0";"0";"62";"0";"0"